{
    "/assets/js/main.js": "/assets/js/main.js",
    "/assets/js/painel.js": "/assets/js/painel.js",
    "/assets/css/painel.css": "/assets/css/painel.css",
    "/assets/css/main.css": "/assets/css/main.css"
}
