<?xml version="1.0" encoding="UTF-8"?>
<!DOCTYPE svg PUBLIC "-//W3C//DTD SVG 1.1//EN" "http://www.w3.org/Graphics/SVG/1.1/DTD/svg11.dtd">
<!-- Creator: CorelDRAW 2018 (64 Bit) -->
<svg xmlns="http://www.w3.org/2000/svg" xml:space="preserve" width="5.6916mm" height="5.6444mm" version="1.1" style="shape-rendering:geometricPrecision; text-rendering:geometricPrecision; image-rendering:optimizeQuality; fill-rule:evenodd; clip-rule:evenodd"
viewBox="0 0 7.06 7"
 xmlns:xlink="http://www.w3.org/1999/xlink">
 <defs>
  <style type="text/css">
   <![CDATA[
    .fil0 {fill:white;fill-rule:nonzero}
   ]]>
  </style>
 </defs>
 <g id="Conteúdo_x0020_de_x0020_símbolos">
  <metadata id="CorelCorpID_0Corel-Layer"/>
  <g id="_2317983430704">
   <path class="fil0" d="M4.71 4.99c-0.07,-0.07 -0.17,-0.11 -0.28,-0.11 -0.11,0 -0.22,0.04 -0.3,0.12l-0.49 0.49 -0.13 -0.07c-0.29,-0.16 -0.69,-0.38 -1.11,-0.8 -0.42,-0.42 -0.64,-0.82 -0.8,-1.11l-0.07 -0.13 0.49 -0.49c0.16,-0.16 0.17,-0.42 0.01,-0.58l-0.9 -0.9c-0.07,-0.07 -0.17,-0.11 -0.28,-0.11 -0.11,0 -0.22,0.04 -0.3,0.12l-0.22 0.22 -0.02 0.03c-0.08,0.11 -0.15,0.23 -0.2,0.36 -0.05,0.12 -0.08,0.24 -0.09,0.36 -0.12,0.97 0.33,1.86 1.54,3.07 1.44,1.44 2.64,1.55 2.97,1.55 0.06,0 0.09,-0 0.1,-0 0.12,-0.02 0.24,-0.04 0.36,-0.09 0.13,-0.05 0.25,-0.12 0.35,-0.2l0.05 -0.04 0.21 -0.2c0.16,-0.16 0.17,-0.42 0.01,-0.58l-0.9 -0.9z"/>
   <path class="fil0" d="M3.76 3.31c-0.2,-0.2 -0.44,-0.34 -0.71,-0.41l-0.12 -0.03 -0.04 0.12c-0.01,0.05 -0.03,0.09 -0.05,0.13l-0.07 0.14 0.15 0.04c0.2,0.05 0.39,0.16 0.54,0.3 0.14,0.14 0.24,0.32 0.3,0.51l0.03 0.09 0.19 0.01c0.02,0 0.04,0 0.06,0.01l0.18 0.02 -0.04 -0.18c-0.07,-0.29 -0.21,-0.55 -0.42,-0.76z"/>
   <path class="fil0" d="M4.39 2.68c-0.37,-0.37 -0.83,-0.6 -1.35,-0.69l-0.18 -0.03 0.03 0.18c0.01,0.05 0.02,0.11 0.02,0.16l0.01 0.09 0.1 0.02c0.41,0.08 0.78,0.27 1.08,0.56 0.34,0.34 0.54,0.76 0.59,1.24l0.01 0.1 0.15 0.02c0.02,0 0.05,0 0.08,0l0.18 0.01 -0.01 -0.15c-0.06,-0.58 -0.3,-1.11 -0.71,-1.51z"/>
   <path class="fil0" d="M5.08 1.99c-0.6,-0.6 -1.4,-0.96 -2.25,-1l-0.17 -0.01 0.03 0.16c0.01,0.05 0.02,0.11 0.03,0.16l0.02 0.1 0.1 0.01c0.73,0.05 1.42,0.36 1.94,0.88 0.51,0.51 0.82,1.19 0.88,1.92l0.01 0.13 0.13 -0.01c0.03,-0 0.06,-0 0.1,-0.01l0.18 -0.01 -0.01 -0.13c-0.06,-0.83 -0.42,-1.6 -1,-2.18z"/>
   <path class="fil0" d="M7.05 4.08c-0.08,-1.05 -0.54,-2.04 -1.28,-2.78 -0.79,-0.79 -1.85,-1.25 -2.97,-1.29l-0.13 -0.01 -0.01 0.13c-0,0.04 -0,0.07 -0.01,0.11l-0.01 0.19 0.13 0c1.02,0.04 1.97,0.45 2.69,1.17 0.67,0.67 1.08,1.57 1.16,2.52l0.01 0.13 0.13 -0.01c0.05,-0 0.09,-0.01 0.14,-0.01l0.14 -0.01 -0.01 -0.13z"/>
  </g>
 </g>
</svg>
